{
  "name": "scene-sounds",
  "title": "Scene Sounds",
  "description": "Scene Sounds allows setting a Playlist in a Scene's configuration window, whose sounds will be played whenever the scene is viewed.",
  "version": "0.0.8",
  "author": "Ethaks",
  "authors": [
    {
      "name": "Ethaks",
      "discord": "Ethaks#2903",
      "ko-fi": "ethaks",
      "url": "https://gitlab.com/Ethaks"
    }
  ],
  "minimumCoreVersion": "0.8.8",
  "compatibleCoreVersion": "0.8.9",
  "scripts": [],
  "esmodules": ["scene-sounds.js"],
  "styles": ["styles/scene-sounds.css"],
  "packs": [],
  "dependencies": [],
  "languages": [
    {
      "lang": "en",
      "name": "English",
      "path": "lang/en.json"
    }
  ],
  "socket": false,
  "url": "https://gitlab.com/Ethaks/fvtt-scene-sounds",
  "manifest": "https://gitlab.com/Ethaks/fvtt-scene-sounds/-/raw/latest/src/module.json",
  "download": "https://gitlab.com/Ethaks/fvtt-scene-sounds/-/jobs/artifacts/0.0.8/raw/scene-sounds.zip?job=build",
  "license": "EUPL-1.2",
  "readme": "https://gitlab.com/Ethaks/fvtt-scene-sounds/-/blob/master/README.md",
  "bugs": "https://gitlab.com/Ethaks/fvtt-scene-sounds/-/issues",
  "changelog": "",
  "system": [],
  "library": false
}
